; Engine configuration file.
; It's best edited using the editor UI and not directly,
; since the parameters that go here are not all obvious.
;
; Format:
;   [section] ; section goes between []
;   param=value ; assign values to parameters

config_version=5

[application]

config/name="Event Scheduler"
run/main_scene="res://src/main_menu/main_menu.tscn"
config/features=PackedStringArray("4.0", "GL Compatibility")

[autoload]

BitHexConverter="*res://src/bit_hex_converter.gd"

[display]

window/size/viewport_width=1280
window/size/viewport_height=720

[editor]

version_control/plugin_name="GitPlugin"
version_control/autoload_on_startup=true

[input]

mouse_select={
"deadzone": 0.5,
"events": [Object(InputEventMouseButton,"resource_local_to_scene":false,"resource_name":"","device":-1,"window_id":0,"alt_pressed":false,"shift_pressed":false,"ctrl_pressed":false,"meta_pressed":false,"button_mask":0,"position":Vector2(0, 0),"global_position":Vector2(0, 0),"factor":1.0,"button_index":1,"pressed":false,"double_click":false,"script":null)
]
}

[rendering]

renderer/rendering_method="gl_compatibility"
renderer/rendering_method.mobile="gl_compatibility"
